org\miage\candidatureservice\CandidatureServiceApplication.class
org\miage\candidatureservice\boundary\CandidatureResource.class
org\miage\candidatureservice\boundary\CandidatureRepresentation.class
org\miage\candidatureservice\control\CandidatureAssembler.class
org\miage\candidatureservice\entity\Organisation.class
org\miage\candidatureservice\entity\Candidature.class
org\miage\candidatureservice\entity\Adresse.class
